[
  {
    "id": 1,
    "titulo": "MJV - Engenho de dentro",
    "idEmpreiteira": 1,
    "lat": -22.8953,
    "lng": -43.2958,
    "endereco": "Rua Goias - Engenho de dentro",
    "label": "1",
    "draggable": false
  },
  {
    "id": 2,
    "titulo": "HKL Engenharia",
    "idEmpreiteira": 1,
    "lat": -22.8828,
    "lng": -43.328,
    "endereco": "Rua Cerqueira Daltro - Cascadura",
    "label": "2",
    "draggable": false
  },
  {
    "id": 3,
    "titulo": "Eng-Brothers",
    "idEmpreiteira": 1,
    "lat": -22.8742,
    "lng": -43.3367,
    "endereco": "Rua Entendente Magalhães - Madureira",
    "label": "3",
    "draggable": true
  }
]
